.label MAP_TILES=$8000
.label VIC=$80e {
  .label BORDER_COLOR=$d021
  .label COLOR_RAM=$d800
  .label MEMORY_SETUP=$d018
  .label BACKGROUND_COLOR=$d020
}
.label Entry=$8a3
.label MAPLOADER=$80e {
  .label Col=$813
  .label DrawMap=$814 {
    .label Scr=$83a
    .label Color=$844
  }
  .label Row=$812
  .label TileScreenLocations=$80e
}
.label MAP_1=$80d3
.label SCREEN_RAM=$c000
.label CHAR_COLORS=$8084
